…
    ## Rows: 25 Columns: 2

    ## -- Column specification --------------------------------------------------------
    ## Delimiter: ","
    ## dbl (2): Hours, Scores

    ## 
    ## i Use `spec()` to retrieve the full column specification for this data.
    ## i Specify the column types or set `show_col_types = FALSE` to quiet this message.

``` r
print(score_hour)
```

    ## # A tibble: 25 x 2
    ##    Hours Scores
    ##    <dbl>  <dbl>
    ##  1   2.5     21
    ##  2   5.1     47
    ##  3   3.2     27
    ##  4   8.5     75
    ##  5   3.5     30
    ##  6   1.5     20
    ##  7   9.2     88
    ##  8   5.5     60
    ##  9   8.3     81
    ## 10   2.7     25
    ## # ... with 15 more rows
…
